B Appendix C | Ciencia de Datos con R
…
            Ciencia de Datos con R

B Appendix C

## [1] "2024-11-07"

library(readr)
HIV <- read_csv("HIV.csv")

HIV

## # A tibble: 824 × 10
##    gender dob      hiv_risk_factor_f Poverty_numeric hh_size ins_type_f
##    <chr>  <chr>    <chr>                       <dbl>   <dbl> <chr>     
##  1 Hombre 8/21/34  Heterosexual                  0.5       2 Medicaid  
##  2 Mujer  1/25/31  Heterosexual                  0.5       3 Medicaid  
##  3 Hombre 11/18/36 Heterosexual                  0.5       1 Medicaid  
##  4 Mujer  6/29/37  Heterosexual                  0.5       1 Medicaid  
##  5 Hombre 12/26/42 Heterosexual                  0.5       2 Medicaid  
##  6 Mujer  3/21/40  Heterosexual                  0.5       2 Medicaid  
##  7 Hombre 8/17/36  Heterosexual                  0.5       1 Medicaid  
##  8 Mujer  10/17/42 Heterosexual                  0.5       1 Medicaid  
##  9 Mujer  10/17/42 Heterosexual                  0.5       1 Medicaid  
## 10 Hombre 7/17/47  Heterosexual                  0.5       2 Medicaid  
## # ℹ 814 more rows
## # ℹ 4 more variables: vital_status <chr>, date_of_death <chr>, hiv_date <chr>,
## #   lifespan <dbl>

library(tidyverse)

https://www.stat.berkeley.edu/~s133/dates.html

HIV$dob=as.Date(format(as.Date(HIV$dob,format="%m/%d/%y"), "19%y%m%d"), "%Y%m%d")

HIV

## # A tibble: 824 × 10
##    gender dob        hiv_risk_factor_f Poverty_numeric hh_size ins_type_f
##    <chr>  <date>     <chr>                       <dbl>   <dbl> <chr>     
##  1 Hombre 1934-08-21 Heterosexual                  0.5       2 Medicaid  
##  2 Mujer  1931-01-25 Heterosexual                  0.5       3 Medicaid  
##  3 Hombre 1936-11-18 Heterosexual                  0.5       1 Medicaid  
##  4 Mujer  1937-06-29 Heterosexual                  0.5       1 Medicaid  
##  5 Hombre 1942-12-26 Heterosexual                  0.5       2 Medicaid  
##  6 Mujer  1940-03-21 Heterosexual                  0.5       2 Medicaid  
##  7 Hombre 1936-08-17 Heterosexual                  0.5       1 Medicaid  
##  8 Mujer  1942-10-17 Heterosexual                  0.5       1 Medicaid  
##  9 Mujer  1942-10-17 Heterosexual                  0.5       1 Medicaid  
## 10 Hombre 1947-07-17 Heterosexual                  0.5       2 Medicaid  
## # ℹ 814 more rows
## # ℹ 4 more variables: vital_status <chr>, date_of_death <chr>, hiv_date <chr>,
## #   lifespan <dbl>

Calculate the age of individuals when they were diagnosed with HIV

Calculate the time between the date of diagnosis of HIV and the date of death.

HIV= HIV |>  
  mutate(date_d=mdy(date_of_death),
         hiv_d = mdy(hiv_date))

HIV

## # A tibble: 824 × 12
##    gender dob        hiv_risk_factor_f Poverty_numeric hh_size ins_type_f
##    <chr>  <date>     <chr>                       <dbl>   <dbl> <chr>     
##  1 Hombre 1934-08-21 Heterosexual                  0.5       2 Medicaid  
##  2 Mujer  1931-01-25 Heterosexual                  0.5       3 Medicaid  
##  3 Hombre 1936-11-18 Heterosexual                  0.5       1 Medicaid  
##  4 Mujer  1937-06-29 Heterosexual                  0.5       1 Medicaid  
##  5 Hombre 1942-12-26 Heterosexual                  0.5       2 Medicaid  
##  6 Mujer  1940-03-21 Heterosexual                  0.5       2 Medicaid  
##  7 Hombre 1936-08-17 Heterosexual                  0.5       1 Medicaid  
##  8 Mujer  1942-10-17 Heterosexual                  0.5       1 Medicaid  
##  9 Mujer  1942-10-17 Heterosexual                  0.5       1 Medicaid  
## 10 Hombre 1947-07-17 Heterosexual                  0.5       2 Medicaid  
## # ℹ 814 more rows
## # ℹ 6 more variables: vital_status <chr>, date_of_death <chr>, hiv_date <chr>,
## #   lifespan <dbl>, date_d <date>, hiv_d <date>

HIV1 <- HIV %>% 
  mutate(hiv_date = mdy(hiv_date))

HIV1

## # A tibble: 824 × 12
##    gender dob        hiv_risk_factor_f Poverty_numeric hh_size ins_type_f
##    <chr>  <date>     <chr>                       <dbl>   <dbl> <chr>     
##  1 Hombre 1934-08-21 Heterosexual                  0.5       2 Medicaid  
##  2 Mujer  1931-01-25 Heterosexual                  0.5       3 Medicaid  
##  3 Hombre 1936-11-18 Heterosexual                  0.5       1 Medicaid  
##  4 Mujer  1937-06-29 Heterosexual                  0.5       1 Medicaid  
##  5 Hombre 1942-12-26 Heterosexual                  0.5       2 Medicaid  
##  6 Mujer  1940-03-21 Heterosexual                  0.5       2 Medicaid  
##  7 Hombre 1936-08-17 Heterosexual                  0.5       1 Medicaid  
##  8 Mujer  1942-10-17 Heterosexual                  0.5       1 Medicaid  
##  9 Mujer  1942-10-17 Heterosexual                  0.5       1 Medicaid  
## 10 Hombre 1947-07-17 Heterosexual                  0.5       2 Medicaid  
## # ℹ 814 more rows
## # ℹ 6 more variables: vital_status <chr>, date_of_death <chr>, hiv_date <date>,
## #   lifespan <dbl>, date_d <date>, hiv_d <date>

HIV2 <- HIV1 %>% 
  mutate(edad = dob %--% hiv_date / years())

HIV2

## # A tibble: 824 × 13
##    gender dob        hiv_risk_factor_f Poverty_numeric hh_size ins_type_f
##    <chr>  <date>     <chr>                       <dbl>   <dbl> <chr>     
##  1 Hombre 1934-08-21 Heterosexual                  0.5       2 Medicaid  
##  2 Mujer  1931-01-25 Heterosexual                  0.5       3 Medicaid  
##  3 Hombre 1936-11-18 Heterosexual                  0.5       1 Medicaid  
##  4 Mujer  1937-06-29 Heterosexual                  0.5       1 Medicaid  
##  5 Hombre 1942-12-26 Heterosexual                  0.5       2 Medicaid  
##  6 Mujer  1940-03-21 Heterosexual                  0.5       2 Medicaid  
##  7 Hombre 1936-08-17 Heterosexual                  0.5       1 Medicaid  
##  8 Mujer  1942-10-17 Heterosexual                  0.5       1 Medicaid  
##  9 Mujer  1942-10-17 Heterosexual                  0.5       1 Medicaid  
## 10 Hombre 1947-07-17 Heterosexual                  0.5       2 Medicaid  
## # ℹ 814 more rows
## # ℹ 7 more variables: vital_status <chr>, date_of_death <chr>, hiv_date <date>,
## #   lifespan <dbl>, date_d <date>, hiv_d <date>, edad <dbl>

HIV3 <- HIV2 %>% 
  mutate(date_of_death = mdy(date_of_death))

HIV3

## # A tibble: 824 × 13
##    gender dob        hiv_risk_factor_f Poverty_numeric hh_size ins_type_f
##    <chr>  <date>     <chr>                       <dbl>   <dbl> <chr>     
##  1 Hombre 1934-08-21 Heterosexual                  0.5       2 Medicaid  
##  2 Mujer  1931-01-25 Heterosexual                  0.5       3 Medicaid  
##  3 Hombre 1936-11-18 Heterosexual                  0.5       1 Medicaid  
##  4 Mujer  1937-06-29 Heterosexual                  0.5       1 Medicaid  
##  5 Hombre 1942-12-26 Heterosexual                  0.5       2 Medicaid  
##  6 Mujer  1940-03-21 Heterosexual                  0.5       2 Medicaid  
##  7 Hombre 1936-08-17 Heterosexual                  0.5       1 Medicaid  
##  8 Mujer  1942-10-17 Heterosexual                  0.5       1 Medicaid  
##  9 Mujer  1942-10-17 Heterosexual                  0.5       1 Medicaid  
## 10 Hombre 1947-07-17 Heterosexual                  0.5       2 Medicaid  
## # ℹ 814 more rows
## # ℹ 7 more variables: vital_status <chr>, date_of_death <date>,
## #   hiv_date <date>, lifespan <dbl>, date_d <date>, hiv_d <date>, edad <dbl>

HIV4 <- HIV3 %>% 
  mutate(diagnosed_death = hiv_date %--% date_of_death / years())

HIV4

## # A tibble: 824 × 14
##    gender dob        hiv_risk_factor_f Poverty_numeric hh_size ins_type_f
##    <chr>  <date>     <chr>                       <dbl>   <dbl> <chr>     
##  1 Hombre 1934-08-21 Heterosexual                  0.5       2 Medicaid  
##  2 Mujer  1931-01-25 Heterosexual                  0.5       3 Medicaid  
##  3 Hombre 1936-11-18 Heterosexual                  0.5       1 Medicaid  
##  4 Mujer  1937-06-29 Heterosexual                  0.5       1 Medicaid  
##  5 Hombre 1942-12-26 Heterosexual                  0.5       2 Medicaid  
##  6 Mujer  1940-03-21 Heterosexual                  0.5       2 Medicaid  
##  7 Hombre 1936-08-17 Heterosexual                  0.5       1 Medicaid  
##  8 Mujer  1942-10-17 Heterosexual                  0.5       1 Medicaid  
##  9 Mujer  1942-10-17 Heterosexual                  0.5       1 Medicaid  
## 10 Hombre 1947-07-17 Heterosexual                  0.5       2 Medicaid  
## # ℹ 814 more rows
## # ℹ 8 more variables: vital_status <chr>, date_of_death <date>,
## #   hiv_date <date>, lifespan <dbl>, date_d <date>, hiv_d <date>, edad <dbl>,
## #   diagnosed_death <dbl>
…
