Capítulo20 Cadena de Caracteres = STRINGS | Ciencia de Datos con R
…
## [1] 2.72

mean(str_count(palabras, "[x]"))

## [1] 0.013

df %>% 
  mutate(
    vocales = str_count(palabra, "[aáeéiíoóuúü]"), # Cuenta cuantas vocales 
    consonantes = str_count(palabra, "[^aáeéiíoóuúü]") # cuenta cuantos consonantes
  )

## # A tibble: 1,000 × 4
##    palabra         i vocales consonantes
##    <chr>       <int>   <int>       <int>
##  1 a               1       1           0
##  2 abril           2       2           3
##  3 acción          3       3           3
##  4 acciones        4       4           4
##  5 acerca          5       3           3
##  6 actitud         6       3           4
##  7 actividad       7       4           5
##  8 actividades     8       5           6
##  9 acto            9       2           2
## 10 actual         10       3           3
## # ℹ 990 more rows
…
