Chapter 3 Calculadora sofisticada | Ciencia de Datos con R
…
length(edad)

## [1] 4

3.1.11 Seleccionar solamente parte de los datos de un archivo

Primero visualizar los datos

Code

library(datos)
millas

## # A tibble: 234 × 11
##    fabricante modelo     cilindrada  anio cilindros transmision traccion ciudad
##    <chr>      <chr>           <dbl> <int>     <int> <chr>       <chr>     <int>
##  1 audi       a4                1.8  1999         4 auto(l5)    d            18
##  2 audi       a4                1.8  1999         4 manual(m5)  d            21
##  3 audi       a4                2    2008         4 manual(m6)  d            20
##  4 audi       a4                2    2008         4 auto(av)    d            21
##  5 audi       a4                2.8  1999         6 auto(l5)    d            16
##  6 audi       a4                2.8  1999         6 manual(m5)  d            18
##  7 audi       a4                3.1  2008         6 auto(av)    d            18
##  8 audi       a4 quattro        1.8  1999         4 manual(m5)  4            18
##  9 audi       a4 quattro        1.8  1999         4 auto(l5)    4            16
## 10 audi       a4 quattro        2    2008         4 manual(m6)  4            20
## # ℹ 224 more rows
## # ℹ 3 more variables: autopista <int>, combustible <chr>, clase <chr>

3.1.11.1 Seleccionar los carros que tienen cilindros igual a 8 (solamente)

La función de Pipe. %>% o |>

Code

library(tidyverse)
millas

## # A tibble: 234 × 11
##    fabricante modelo     cilindrada  anio cilindros transmision traccion ciudad
##    <chr>      <chr>           <dbl> <int>     <int> <chr>       <chr>     <int>
##  1 audi       a4                1.8  1999         4 auto(l5)    d            18
##  2 audi       a4                1.8  1999         4 manual(m5)  d            21
##  3 audi       a4                2    2008         4 manual(m6)  d            20
##  4 audi       a4                2    2008         4 auto(av)    d            21
##  5 audi       a4                2.8  1999         6 auto(l5)    d            16
##  6 audi       a4                2.8  1999         6 manual(m5)  d            18
##  7 audi       a4                3.1  2008         6 auto(av)    d            18
##  8 audi       a4 quattro        1.8  1999         4 manual(m5)  4            18
##  9 audi       a4 quattro        1.8  1999         4 auto(l5)    4            16
## 10 audi       a4 quattro        2    2008         4 manual(m6)  4            20
## # ℹ 224 more rows
## # ℹ 3 more variables: autopista <int>, combustible <chr>, clase <chr>

Code

names(millas)

##  [1] "fabricante"  "modelo"      "cilindrada"  "anio"        "cilindros"  
##  [6] "transmision" "traccion"    "ciudad"      "autopista"   "combustible"
## [11] "clase"

Code

millas |> dplyr::select(cilindros) |> 
  dplyr::filter(cilindros == 8)

## # A tibble: 70 × 1
##    cilindros
##        <int>
##  1         8
##  2         8
##  3         8
##  4         8
##  5         8
##  6         8
##  7         8
##  8         8
##  9         8
## 10         8
## # ℹ 60 more rows

3.1.11.2 Selecionar los diamantes mayor de 3 quilate

Code

diamantes |> dplyr::select(quilate) |> 
  filter(quilate > 3)

## # A tibble: 32 × 1
##    quilate
##      <dbl>
##  1    3.01
##  2    3.11
##  3    3.01
##  4    3.05
##  5    3.02
##  6    3.01
##  7    3.65
##  8    3.24
##  9    3.22
## 10    3.5 
## # ℹ 22 more rows
…
