Chapter 13 Factores | Ciencia de Datos con R
…
levels()

13.2.1 Datos : Encuesta Social General

count()

Ejercicios:

Code

library(datos)
encuesta

## # A tibble: 21,483 × 9
##     anio estado_civil  edad raza  ingreso partido religion denominacion horas_tv
##    <int> <fct>        <int> <fct> <fct>   <fct>   <fct>    <fct>           <int>
##  1  2000 Nunca se ha…    26 Blan… 8000 -… Ind, p… Protest… Bautistas d…       12
##  2  2000 Divorciado      48 Blan… 8000 -… No fue… Protest… Bautista, n…       NA
##  3  2000 Viudo           67 Blan… No apl… Indepe… Protest… No denomina…        2
##  4  2000 Nunca se ha…    39 Blan… No apl… Ind, p… Cristia… No aplica           4
##  5  2000 Divorciado      25 Blan… No apl… No fue… Ninguna  No aplica           1
##  6  2000 Casado          25 Blan… 20000 … Fuerte… Protest… Bautistas d…       NA
##  7  2000 Nunca se ha…    36 Blan… 25000 … No fue… Cristia… No aplica           3
##  8  2000 Divorciado      44 Blan… 7000 -… Ind, p… Protest… Sínodo lute…       NA
##  9  2000 Casado          44 Blan… 25000 … No fue… Protest… Otra                0
## 10  2000 Casado          47 Blan… 25000 … Fuerte… Protest… Bautistas d…        3
## # ℹ 21,473 more rows
…
