Chapter 17 Fechas, horas y minutas | Ciencia de Datos con R
…
Code

vuelos %>%
  dplyr::select(anio, mes, dia, hora, minuto) %>%
  mutate(salida = make_datetime(anio, mes, dia, hora, minuto))

## # A tibble: 336,776 × 6
##     anio   mes   dia  hora minuto salida             
##    <int> <int> <int> <dbl>  <dbl> <dttm>             
##  1  2013     1     1     5     15 2013-01-01 05:15:00
##  2  2013     1     1     5     29 2013-01-01 05:29:00
##  3  2013     1     1     5     40 2013-01-01 05:40:00
##  4  2013     1     1     5     45 2013-01-01 05:45:00
##  5  2013     1     1     6      0 2013-01-01 06:00:00
##  6  2013     1     1     5     58 2013-01-01 05:58:00
##  7  2013     1     1     6      0 2013-01-01 06:00:00
##  8  2013     1     1     6      0 2013-01-01 06:00:00
##  9  2013     1     1     6      0 2013-01-01 06:00:00
## 10  2013     1     1     6      0 2013-01-01 06:00:00
## # ℹ 336,766 more rows

Unir el año, mes, día, hora que esten en diferentes columnas en uno

Code

vuelos %>%
  dplyr::select(anio, mes, dia, hora, minuto) %>%
  mutate(salida2 = make_date(anio, mes, dia))

## # A tibble: 336,776 × 6
##     anio   mes   dia  hora minuto salida2   
##    <int> <int> <int> <dbl>  <dbl> <date>    
##  1  2013     1     1     5     15 2013-01-01
##  2  2013     1     1     5     29 2013-01-01
##  3  2013     1     1     5     40 2013-01-01
##  4  2013     1     1     5     45 2013-01-01
##  5  2013     1     1     6      0 2013-01-01
##  6  2013     1     1     5     58 2013-01-01
##  7  2013     1     1     6      0 2013-01-01
##  8  2013     1     1     6      0 2013-01-01
##  9  2013     1     1     6      0 2013-01-01
## 10  2013     1     1     6      0 2013-01-01
## # ℹ 336,766 more rows

17.9 %/%: integer division

Code

vuelos |> dplyr::select(tiempo_vuelo) |> 
  mutate(t=tiempo_vuelo %/% 100) |>  # Division
  mutate(m= tiempo_vuelo %% 100)     # modulus... Cambia el 100 para 1, 10, 1000... y mira cual es el resultado

## # A tibble: 336,776 × 3
##    tiempo_vuelo     t     m
##           <dbl> <dbl> <dbl>
##  1          227     2    27
##  2          227     2    27
##  3          160     1    60
##  4          183     1    83
##  5          116     1    16
##  6          150     1    50
##  7          158     1    58
##  8           53     0    53
##  9          140     1    40
## 10          138     1    38
## # ℹ 336,766 more rows
…
