Chapter 20 Importación de Paquetes y Datos | Ciencia de Datos con R
…
Code

cajapr <- c(
  17.75, #Latitud Sur
   -67.4, #Longitud Oeste
  18.75, #Latitud Norte
  -65.15 #Longitud Este
  )

Code

EQ_100 = EQ |> slice(1:300)
EQ_100

## # A tibble: 300 × 22
##    time                latitude longitude depth   mag magType   nst   gap
##    <dttm>                 <dbl>     <dbl> <dbl> <dbl> <chr>   <dbl> <dbl>
##  1 2023-09-11 20:29:51     33.9    -117.  -0.52  1.14 ml         16   138
##  2 2023-09-11 20:25:31     61.6    -146.  40.7   1.3  ml         NA    NA
##  3 2023-09-11 20:21:35     59.1    -153.  62.8   1.8  ml         NA    NA
##  4 2023-09-11 20:21:29     38.8    -123.   0.95  0.75 md          8   129
##  5 2023-09-11 20:17:18     33.7    -117.  16.2   0.77 ml         22    58
##  6 2023-09-11 20:13:48     62.6    -149.  56.1   1.6  ml         NA    NA
##  7 2023-09-11 20:07:55     38.8    -123.   1.58  1.06 md         12    81
##  8 2023-09-11 20:07:23     29.1     -97.9  2.52  3.2  ml         18    85
##  9 2023-09-11 20:05:27     62.5    -151.  83     1.6  ml         NA    NA
## 10 2023-09-11 20:04:17     33.3    -117.  18.8   0.71 ml         23    65
## # ℹ 290 more rows
## # ℹ 14 more variables: dmin <dbl>, rms <dbl>, net <chr>, id <chr>,
## #   updated <dttm>, place <chr>, type <chr>, horizontalError <dbl>,
## #   depthError <dbl>, magError <dbl>, magNst <dbl>, status <chr>,
## #   locationSource <chr>, magSource <chr>
…
