Chapter 6 Otras funciones: | 4_Transformacion_dplyr
…
Chapter 6 Otras funciones:

%>% “El pipe”

6.1 Otras funciones:

na.rm=TRUE

!is.na() = is not NA, pq al frente tiene “!”

no_cancelados <- vuelos %>% 
  filter(!is.na(atraso_salida), !is.na(atraso_llegada))
no_cancelados

## # A tibble: 327,346 × 19
##     anio   mes   dia horario_salida salida_programada atraso_salida
##    <int> <int> <int>          <int>             <int>         <dbl>
##  1  2013     1     1            517               515             2
##  2  2013     1     1            533               529             4
##  3  2013     1     1            542               540             2
##  4  2013     1     1            544               545            -1
##  5  2013     1     1            554               600            -6
##  6  2013     1     1            554               558            -4
##  7  2013     1     1            555               600            -5
##  8  2013     1     1            557               600            -3
##  9  2013     1     1            557               600            -3
## 10  2013     1     1            558               600            -2
## # ℹ 327,336 more rows
## # ℹ 13 more variables: horario_llegada <int>, llegada_programada <int>,
## #   atraso_llegada <dbl>, aerolinea <chr>, vuelo <int>, codigo_cola <chr>,
## #   origen <chr>, destino <chr>, tiempo_vuelo <dbl>, distancia <dbl>,
## #   hora <dbl>, minuto <dbl>, fecha_hora <dttm>

no_cancelados %>% 
  group_by(anio, mes, dia) %>% 
  summarise(mean = mean(atraso_salida))

## `summarise()` has grouped output by 'anio', 'mes'. You can override using the
## `.groups` argument.

## # A tibble: 365 × 4
## # Groups:   anio, mes [12]
##     anio   mes   dia  mean
##    <int> <int> <int> <dbl>
##  1  2013     1     1 11.4 
##  2  2013     1     2 13.7 
##  3  2013     1     3 10.9 
##  4  2013     1     4  8.97
##  5  2013     1     5  5.73
##  6  2013     1     6  7.15
##  7  2013     1     7  5.42
##  8  2013     1     8  2.56
##  9  2013     1     9  2.30
## 10  2013     1    10  2.84
## # ℹ 355 more rows

vuelos %>% 
  group_by(anio, mes, dia) %>% 
  summarise(mean = mean(atraso_salida, na.rm=TRUE))

## `summarise()` has grouped output by 'anio', 'mes'. You can override using the
## `.groups` argument.

## # A tibble: 365 × 4
## # Groups:   anio, mes [12]
##     anio   mes   dia  mean
##    <int> <int> <int> <dbl>
##  1  2013     1     1 11.5 
##  2  2013     1     2 13.9 
##  3  2013     1     3 11.0 
##  4  2013     1     4  8.95
##  5  2013     1     5  5.73
##  6  2013     1     6  7.15
##  7  2013     1     7  5.42
##  8  2013     1     8  2.55
##  9  2013     1     9  2.28
## 10  2013     1    10  2.84
## # ℹ 355 more rows
…
