Chapter 9 Tibbles | 4_Transformacion_dplyr
…
9.4 tibble vs. data.frame

tb = tibble(
  a = lubridate::now() + runif(1e2) * 86400,
  b = lubridate::today() + runif(1e2) * 30,
  c = 1:1e2,
  d = runif(1e2),
  e = sample(letters, 1e2, replace = TRUE)
)
tb

## # A tibble: 100 × 5
##    a                   b              c      d e    
##    <dttm>              <date>     <int>  <dbl> <chr>
##  1 2023-08-10 05:41:57 2023-08-10     1 0.913  t    
##  2 2023-08-10 12:16:41 2023-08-29     2 0.217  t    
##  3 2023-08-10 03:38:59 2023-09-06     3 0.425  y    
##  4 2023-08-10 15:35:59 2023-09-06     4 0.161  t    
##  5 2023-08-09 22:56:10 2023-08-21     5 0.678  n    
##  6 2023-08-10 11:01:38 2023-08-24     6 0.810  h    
##  7 2023-08-10 13:34:37 2023-09-04     7 0.497  t    
##  8 2023-08-10 00:59:45 2023-08-21     8 0.516  i    
##  9 2023-08-09 23:26:00 2023-09-07     9 0.996  v    
## 10 2023-08-10 12:11:55 2023-08-12    10 0.0142 c    
## # ℹ 90 more rows

tb %>%
  print(n = 4, width = Inf)

## # A tibble: 100 × 5
##   a                   b              c     d e    
##   <dttm>              <date>     <int> <dbl> <chr>
## 1 2023-08-10 05:41:57 2023-08-10     1 0.913 t    
## 2 2023-08-10 12:16:41 2023-08-29     2 0.217 t    
## 3 2023-08-10 03:38:59 2023-09-06     3 0.425 y    
## 4 2023-08-10 15:35:59 2023-09-06     4 0.161 t    
## # ℹ 96 more rows
…
