Capítulo10 Transformación: Rangos y más | Ciencia de Datos con R
…
flights %>% 
  summarise(delay = mean(dep_delay, na.rm = TRUE))

## # A tibble: 1 × 1
##   delay
##   <dbl>
## 1  12.6

by_day <- group_by(flights, year, month, day)

summarise(by_day, delay = mean(dep_delay, na.rm = TRUE))

## # A tibble: 365 × 4
## # Groups:   year, month [12]
##     year month   day delay
##    <int> <int> <int> <dbl>
##  1  2013     1     1 11.5 
##  2  2013     1     2 13.9 
##  3  2013     1     3 11.0 
##  4  2013     1     4  8.95
##  5  2013     1     5  5.73
##  6  2013     1     6  7.15
##  7  2013     1     7  5.42
##  8  2013     1     8  2.55
##  9  2013     1     9  2.28
## 10  2013     1    10  2.84
## # ℹ 355 more rows

flights %>% 
  group_by(year, month, day) %>% 
summarise(delay = mean(dep_delay, na.rm = TRUE))

## # A tibble: 365 × 4
## # Groups:   year, month [12]
##     year month   day delay
##    <int> <int> <int> <dbl>
##  1  2013     1     1 11.5 
##  2  2013     1     2 13.9 
##  3  2013     1     3 11.0 
##  4  2013     1     4  8.95
##  5  2013     1     5  5.73
##  6  2013     1     6  7.15
##  7  2013     1     7  5.42
##  8  2013     1     8  2.55
##  9  2013     1     9  2.28
## 10  2013     1    10  2.84
## # ℹ 355 more rows
…
by_dest <- group_by(flights, dest)
by_dest

## # A tibble: 336,776 × 19
## # Groups:   dest [105]
##     year month   day dep_time sched_dep_time dep_delay arr_time sched_arr_time
##    <int> <int> <int>    <int>          <int>     <dbl>    <int>          <int>
##  1  2013     1     1      517            515         2      830            819
##  2  2013     1     1      533            529         4      850            830
##  3  2013     1     1      542            540         2      923            850
##  4  2013     1     1      544            545        -1     1004           1022
##  5  2013     1     1      554            600        -6      812            837
##  6  2013     1     1      554            558        -4      740            728
##  7  2013     1     1      555            600        -5      913            854
##  8  2013     1     1      557            600        -3      709            723
##  9  2013     1     1      557            600        -3      838            846
## 10  2013     1     1      558            600        -2      753            745
## # ℹ 336,766 more rows
## # ℹ 11 more variables: arr_delay <dbl>, carrier <chr>, flight <int>,
## #   tailnum <chr>, origin <chr>, dest <chr>, air_time <dbl>, distance <dbl>,
## #   hour <dbl>, minute <dbl>, time_hour <dttm>

delay <- summarise(by_dest,
  count = n(),
  dist = mean(distance, na.rm = TRUE),
  delay = mean(arr_delay, na.rm = TRUE))

delay

## # A tibble: 105 × 4
##    dest  count  dist delay
##    <chr> <int> <dbl> <dbl>
##  1 ABQ     254 1826   4.38
##  2 ACK     265  199   4.85
##  3 ALB     439  143  14.4 
##  4 ANC       8 3370  -2.5 
##  5 ATL   17215  757. 11.3 
##  6 AUS    2439 1514.  6.02
##  7 AVL     275  584.  8.00
##  8 BDL     443  116   7.05
##  9 BGR     375  378   8.03
## 10 BHM     297  866. 16.9 
## # ℹ 95 more rows
…
