Capítulo9 Transformación: Mutate, transmute, lag, lead, cumsum, cummean, cumvar | Ciencia de Datos con R
…
# |> es igual %>% 
new_df=vuelos |> dplyr::select(distancia, tiempo_vuelo, atraso_salida,  atraso_llegada) |> 
  mutate( ganancia = atraso_salida - atraso_llegada,
          velocidad = distancia / tiempo_vuelo * 60)

new_df

## # A tibble: 336,776 × 6
##    distancia tiempo_vuelo atraso_salida atraso_llegada ganancia velocidad
##        <dbl>        <dbl>         <dbl>          <dbl>    <dbl>     <dbl>
##  1      1400          227             2             11       -9      370.
##  2      1416          227             4             20      -16      374.
##  3      1089          160             2             33      -31      408.
##  4      1576          183            -1            -18       17      517.
##  5       762          116            -6            -25       19      394.
##  6       719          150            -4             12      -16      288.
##  7      1065          158            -5             19      -24      404.
##  8       229           53            -3            -14       11      259.
##  9       944          140            -3             -8        5      405.
## 10       733          138            -2              8      -10      319.
## # ℹ 336,766 more rows
…
9.3 Crear nuevas variables

mutate(vuelos_sml,
  ganado = atraso_salida - atraso_llegada,
  velocidad = distancia / tiempo_vuelo * 60
)

## # A tibble: 336,776 × 9
##     anio   mes   dia atraso_salida atraso_llegada distancia tiempo_vuelo ganado
##    <int> <int> <int>         <dbl>          <dbl>     <dbl>        <dbl>  <dbl>
##  1  2013     1     1             2             11      1400          227     -9
##  2  2013     1     1             4             20      1416          227    -16
##  3  2013     1     1             2             33      1089          160    -31
##  4  2013     1     1            -1            -18      1576          183     17
##  5  2013     1     1            -6            -25       762          116     19
##  6  2013     1     1            -4             12       719          150    -16
##  7  2013     1     1            -5             19      1065          158    -24
##  8  2013     1     1            -3            -14       229           53     11
##  9  2013     1     1            -3             -8       944          140      5
## 10  2013     1     1            -2              8       733          138    -10
## # ℹ 336,766 more rows
## # ℹ 1 more variable: velocidad <dbl>

9.4 transmute()

Para guardar solamente la nueva variable usa transmutate

flights |> transmute(
  gain = dep_delay - arr_delay,
  hours = air_time / 60,
  gain_per_hour = gain / hours
)

## # A tibble: 336,776 × 3
##     gain hours gain_per_hour
##    <dbl> <dbl>         <dbl>
##  1    -9 3.78          -2.38
##  2   -16 3.78          -4.23
##  3   -31 2.67         -11.6 
##  4    17 3.05           5.57
##  5    19 1.93           9.83
##  6   -16 2.5           -6.4 
##  7   -24 2.63          -9.11
##  8    11 0.883         12.5 
##  9     5 2.33           2.14
## 10   -10 2.3           -4.35
## # ℹ 336,766 more rows
…
Evalúa la diferencia en números de casos entre 7 días de las semana en números de casos nuevos de COVID, “IncCasosSaludNuevo”

library(readr)
library(dplyr)
#names(url_COVID_PR)
url_COVID_PR <- read_csv("Datos/url_COVID_PR.csv")
#head(url_COVID_PR)
#names(url_COVID_PR)
df2=url_COVID_PR %>% 
  dplyr::select(IncCasosSaludNuevo) %>% 
  mutate(Cambios_Casos=IncCasosSaludNuevo-lag(IncCasosSaludNuevo,7)) 

df2

## # A tibble: 587 × 2
##    IncCasosSaludNuevo Cambios_Casos
##                 <dbl>         <dbl>
##  1                  2            NA
##  2                  3            NA
##  3                  3            NA
##  4                  0            NA
##  5                  9            NA
##  6                  7            NA
##  7                  6            NA
##  8                  5             3
##  9                 14            11
## 10                 12             9
## # ℹ 577 more rows
…
url_COVID_PR %>%
dplyr::select(IncCasosSaludNuevo, CasosSaludNuevo) %>%
mutate(suma=cumsum(IncCasosSaludNuevo))

## # A tibble: 587 × 3
##    IncCasosSaludNuevo CasosSaludNuevo  suma
##                 <dbl>           <dbl> <dbl>
##  1                  2               2     2
##  2                  3               5     5
##  3                  3               8     8
##  4                  0               8     8
##  5                  9              17    17
##  6                  7              24    24
##  7                  6              30    30
##  8                  5              35    35
##  9                 14              49    49
## 10                 12              61    61
## # ℹ 577 more rows
…
df3=df %>% 
  dplyr::select(value) %>% 
  mutate(Prom_cum=cummean(value)) %>% 
  mutate(Var_cum=cumstats::cumvar(value)) # activa el paquete cumstats

library(cumstats)
 df3=df %>% 
  dplyr::select(value) %>% 
  mutate(Prom_cum=cummean(value)) %>% 
  mutate(Var_cum=cumvar(value))

 df3

## # A tibble: 1,000 × 3
##    value Prom_cum      Var_cum
##    <dbl>    <dbl>        <dbl>
##  1  5.00     5.00 NA          
##  2  5.00     5.00  0.00000146 
##  3  5.00     5.00  0.000000778
##  4  5.00     5.00  0.000000937
##  5  5.00     5.00  0.00000154 
##  6  5.00     5.00  0.00000124 
##  7  5.00     5.00  0.00000139 
##  8  5.00     5.00  0.00000129 
##  9  5.00     5.00  0.00000115 
## 10  5.00     5.00  0.00000113 
## # ℹ 990 more rows

9.10 Uso de varianza cumulativa en investigación:

Un metodo para determinar si la cantidad de muestras recolectada es suficiente, es evaluar si la varianza cumulativa sigue cambiando cuando se añade nuevas recolección de datos.

df3$order=c(1:1000)
df3

## # A tibble: 1,000 × 4
##    value Prom_cum      Var_cum order
##    <dbl>    <dbl>        <dbl> <int>
##  1  5.00     5.00 NA               1
##  2  5.00     5.00  0.00000146      2
##  3  5.00     5.00  0.000000778     3
##  4  5.00     5.00  0.000000937     4
##  5  5.00     5.00  0.00000154      5
##  6  5.00     5.00  0.00000124      6
##  7  5.00     5.00  0.00000139      7
##  8  5.00     5.00  0.00000129      8
##  9  5.00     5.00  0.00000115      9
## 10  5.00     5.00  0.00000113     10
## # ℹ 990 more rows
…
