Chapter 8 Transformacion 5 | Ciencia de Datos con R
…
##  [1] "anio"               "mes"                "dia"               
##  [4] "horario_salida"     "salida_programada"  "atraso_salida"     
##  [7] "horario_llegada"    "llegada_programada" "atraso_llegada"    
## [10] "aerolinea"          "vuelo"              "codigo_cola"       
## [13] "origen"             "destino"            "tiempo_vuelo"      
## [16] "distancia"          "hora"               "minuto"            
## [19] "fecha_hora"

Code

library(tidyverse)
vuelos %>% 
  dplyr::select(horario_salida)

## # A tibble: 336,776 × 1
##    horario_salida
##             <int>
##  1            517
##  2            533
##  3            542
##  4            544
##  5            554
##  6            554
##  7            555
##  8            557
##  9            557
## 10            558
## # ℹ 336,766 more rows

Code

vuelos %>% 
  dplyr::select(starts_with("horario"))

## # A tibble: 336,776 × 2
##    horario_salida horario_llegada
##             <int>           <int>
##  1            517             830
##  2            533             850
##  3            542             923
##  4            544            1004
##  5            554             812
##  6            554             740
##  7            555             913
##  8            557             709
##  9            557             838
## 10            558             753
## # ℹ 336,766 more rows

Code

vuelos %>% 
  dplyr::select(ends_with("salida"))

## # A tibble: 336,776 × 2
##    horario_salida atraso_salida
##             <int>         <dbl>
##  1            517             2
##  2            533             4
##  3            542             2
##  4            544            -1
##  5            554            -6
##  6            554            -4
##  7            555            -5
##  8            557            -3
##  9            557            -3
## 10            558            -2
## # ℹ 336,766 more rows

Code

vuelos %>% 
  dplyr::select(contains("salida"))

## # A tibble: 336,776 × 3
##    horario_salida salida_programada atraso_salida
##             <int>             <int>         <dbl>
##  1            517               515             2
##  2            533               529             4
##  3            542               540             2
##  4            544               545            -1
##  5            554               600            -6
##  6            554               558            -4
##  7            555               600            -5
##  8            557               600            -3
##  9            557               600            -3
## 10            558               600            -2
## # ℹ 336,766 more rows

8.2 rename()

Cambiar el nombre de la columna

Code

vuelos %>% 
  rename(aeropuerto_origen=origen) %>% 
  rename(areopuerto_distino=destino) # nombre nuevo= nombre original

## # A tibble: 336,776 × 19
##     anio   mes   dia horario_salida salida_programada atraso_salida
##    <int> <int> <int>          <int>             <int>         <dbl>
##  1  2013     1     1            517               515             2
##  2  2013     1     1            533               529             4
##  3  2013     1     1            542               540             2
##  4  2013     1     1            544               545            -1
##  5  2013     1     1            554               600            -6
##  6  2013     1     1            554               558            -4
##  7  2013     1     1            555               600            -5
##  8  2013     1     1            557               600            -3
##  9  2013     1     1            557               600            -3
## 10  2013     1     1            558               600            -2
## # ℹ 336,766 more rows
## # ℹ 13 more variables: horario_llegada <int>, llegada_programada <int>,
## #   atraso_llegada <dbl>, aerolinea <chr>, vuelo <int>, codigo_cola <chr>,
## #   aeropuerto_origen <chr>, areopuerto_distino <chr>, tiempo_vuelo <dbl>,
## #   distancia <dbl>, hora <dbl>, minuto <dbl>, fecha_hora <dttm>
…
Code

vuelos %>% 
    dplyr::select(distancia, aerolinea, everything())

## # A tibble: 336,776 × 19
##    distancia aerolinea  anio   mes   dia horario_salida salida_programada
##        <dbl> <chr>     <int> <int> <int>          <int>             <int>
##  1      1400 UA         2013     1     1            517               515
##  2      1416 UA         2013     1     1            533               529
##  3      1089 AA         2013     1     1            542               540
##  4      1576 B6         2013     1     1            544               545
##  5       762 DL         2013     1     1            554               600
##  6       719 UA         2013     1     1            554               558
##  7      1065 B6         2013     1     1            555               600
##  8       229 EV         2013     1     1            557               600
##  9       944 B6         2013     1     1            557               600
## 10       733 AA         2013     1     1            558               600
## # ℹ 336,766 more rows
## # ℹ 12 more variables: atraso_salida <dbl>, horario_llegada <int>,
## #   llegada_programada <int>, atraso_llegada <dbl>, vuelo <int>,
## #   codigo_cola <chr>, origen <chr>, destino <chr>, tiempo_vuelo <dbl>,
## #   hora <dbl>, minuto <dbl>, fecha_hora <dttm>

Seleccionar de un conjunto de variables en orden que aparece en el data.frame

Code

vuelos |> dplyr::select(anio:horario_salida)

## # A tibble: 336,776 × 4
##     anio   mes   dia horario_salida
##    <int> <int> <int>          <int>
##  1  2013     1     1            517
##  2  2013     1     1            533
##  3  2013     1     1            542
##  4  2013     1     1            544
##  5  2013     1     1            554
##  6  2013     1     1            554
##  7  2013     1     1            555
##  8  2013     1     1            557
##  9  2013     1     1            557
## 10  2013     1     1            558
## # ℹ 336,766 more rows
…
Code

# |> es igual %>% 
new_df=vuelos |> dplyr::select(distancia, tiempo_vuelo, atraso_salida,  atraso_llegada) |> 
  mutate( ganancia = atraso_salida - atraso_llegada,
          velocidad = distancia / tiempo_vuelo * 60)

new_df

## # A tibble: 336,776 × 6
##    distancia tiempo_vuelo atraso_salida atraso_llegada ganancia velocidad
##        <dbl>        <dbl>         <dbl>          <dbl>    <dbl>     <dbl>
##  1      1400          227             2             11       -9      370.
##  2      1416          227             4             20      -16      374.
##  3      1089          160             2             33      -31      408.
##  4      1576          183            -1            -18       17      517.
##  5       762          116            -6            -25       19      394.
##  6       719          150            -4             12      -16      288.
##  7      1065          158            -5             19      -24      404.
##  8       229           53            -3            -14       11      259.
##  9       944          140            -3             -8        5      405.
## 10       733          138            -2              8      -10      319.
## # ℹ 336,766 more rows
…
8.5 Crear nuevas variables

Code

mutate(vuelos_sml,
  ganado = atraso_salida - atraso_llegada,
  velocidad = distancia / tiempo_vuelo * 60
)

## # A tibble: 336,776 × 9
##     anio   mes   dia atraso_salida atraso_llegada distancia tiempo_vuelo ganado
##    <int> <int> <int>         <dbl>          <dbl>     <dbl>        <dbl>  <dbl>
##  1  2013     1     1             2             11      1400          227     -9
##  2  2013     1     1             4             20      1416          227    -16
##  3  2013     1     1             2             33      1089          160    -31
##  4  2013     1     1            -1            -18      1576          183     17
##  5  2013     1     1            -6            -25       762          116     19
##  6  2013     1     1            -4             12       719          150    -16
##  7  2013     1     1            -5             19      1065          158    -24
##  8  2013     1     1            -3            -14       229           53     11
##  9  2013     1     1            -3             -8       944          140      5
## 10  2013     1     1            -2              8       733          138    -10
## # ℹ 336,766 more rows
## # ℹ 1 more variable: velocidad <dbl>

8.6 transmute()

Para guardar solamente la nueva variable usa transmutate

Code

flights |> transmute(
  gain = dep_delay - arr_delay,
  hours = air_time / 60,
  gain_per_hour = gain / hours
)

## # A tibble: 336,776 × 3
##     gain hours gain_per_hour
##    <dbl> <dbl>         <dbl>
##  1    -9 3.78          -2.38
##  2   -16 3.78          -4.23
##  3   -31 2.67         -11.6 
##  4    17 3.05           5.57
##  5    19 1.93           9.83
##  6   -16 2.5           -6.4 
##  7   -24 2.63          -9.11
##  8    11 0.883         12.5 
##  9     5 2.33           2.14
## 10   -10 2.3           -4.35
## # ℹ 336,766 more rows
…
Code

#head(url_COVID_PR)
#names(url_COVID_PR)
df2=url_COVID_PR %>% 
  dplyr::select(IncCasosSaludNuevo) %>% 
  mutate(Cambios_Casos=IncCasosSaludNuevo-lag(IncCasosSaludNuevo,7)) 

df2

## # A tibble: 587 × 2
##    IncCasosSaludNuevo Cambios_Casos
##                 <dbl>         <dbl>
##  1                  2            NA
##  2                  3            NA
##  3                  3            NA
##  4                  0            NA
##  5                  9            NA
##  6                  7            NA
##  7                  6            NA
##  8                  5             3
##  9                 14            11
## 10                 12             9
## # ℹ 577 more rows
…
Code

url_COVID_PR %>%
dplyr::select(IncCasosSaludNuevo, CasosSaludNuevo) %>%
mutate(suma=cumsum(IncCasosSaludNuevo))

## # A tibble: 587 × 3
##    IncCasosSaludNuevo CasosSaludNuevo  suma
##                 <dbl>           <dbl> <dbl>
##  1                  2               2     2
##  2                  3               5     5
##  3                  3               8     8
##  4                  0               8     8
##  5                  9              17    17
##  6                  7              24    24
##  7                  6              30    30
##  8                  5              35    35
##  9                 14              49    49
## 10                 12              61    61
## # ℹ 577 more rows
…
## The following object is masked from 'package:dplyr':
## 
##     cummean

Code

 df3=df %>% 
  dplyr::select(value) %>% 
  mutate(Prom_cum=cummean(value)) %>% 
  mutate(Var_cum=cumvar(value))

 df3

## # A tibble: 1,000 × 3
##    value Prom_cum      Var_cum
##    <dbl>    <dbl>        <dbl>
##  1  5.00     5.00 NA          
##  2  5.00     5.00  0.00000146 
##  3  5.00     5.00  0.000000778
##  4  5.00     5.00  0.000000937
##  5  5.00     5.00  0.00000154 
##  6  5.00     5.00  0.00000124 
##  7  5.00     5.00  0.00000139 
##  8  5.00     5.00  0.00000129 
##  9  5.00     5.00  0.00000115 
## 10  5.00     5.00  0.00000113 
## # ℹ 990 more rows

8.12 Uso de varianza cumulativa en investigación:

Un metodo para determinar si la cantidad de muestras recolectada es suficiente, es evaluar si la varianza cumulativa sigue cambiando cuando se añade nuevas recolección de datos.

Code

df3$order=c(1:1000)
df3

## # A tibble: 1,000 × 4
##    value Prom_cum      Var_cum order
##    <dbl>    <dbl>        <dbl> <int>
##  1  5.00     5.00 NA               1
##  2  5.00     5.00  0.00000146      2
##  3  5.00     5.00  0.000000778     3
##  4  5.00     5.00  0.000000937     4
##  5  5.00     5.00  0.00000154      5
##  6  5.00     5.00  0.00000124      6
##  7  5.00     5.00  0.00000139      7
##  8  5.00     5.00  0.00000129      8
##  9  5.00     5.00  0.00000115      9
## 10  5.00     5.00  0.00000113     10
## # ℹ 990 more rows
…
## # A tibble: 1 × 1
##   delay
##   <dbl>
## 1  12.6

Code

by_day <- group_by(flights, year, month, day)

summarise(by_day, delay = mean(dep_delay, na.rm = TRUE))

## `summarise()` has grouped output by 'year', 'month'. You can override using
## the `.groups` argument.

## # A tibble: 365 × 4
## # Groups:   year, month [12]
##     year month   day delay
##    <int> <int> <int> <dbl>
##  1  2013     1     1 11.5 
##  2  2013     1     2 13.9 
##  3  2013     1     3 11.0 
##  4  2013     1     4  8.95
##  5  2013     1     5  5.73
##  6  2013     1     6  7.15
##  7  2013     1     7  5.42
##  8  2013     1     8  2.55
##  9  2013     1     9  2.28
## 10  2013     1    10  2.84
## # ℹ 355 more rows

Code

flights %>% 
  group_by(year, month, day) %>% 
summarise(delay = mean(dep_delay, na.rm = TRUE))

## `summarise()` has grouped output by 'year', 'month'. You can override using
## the `.groups` argument.

## # A tibble: 365 × 4
## # Groups:   year, month [12]
##     year month   day delay
##    <int> <int> <int> <dbl>
##  1  2013     1     1 11.5 
##  2  2013     1     2 13.9 
##  3  2013     1     3 11.0 
##  4  2013     1     4  8.95
##  5  2013     1     5  5.73
##  6  2013     1     6  7.15
##  7  2013     1     7  5.42
##  8  2013     1     8  2.55
##  9  2013     1     9  2.28
## 10  2013     1    10  2.84
## # ℹ 355 more rows
…
Code

by_dest <- group_by(flights, dest)
by_dest

## # A tibble: 336,776 × 19
## # Groups:   dest [105]
##     year month   day dep_time sched_dep_time dep_delay arr_time sched_arr_time
##    <int> <int> <int>    <int>          <int>     <dbl>    <int>          <int>
##  1  2013     1     1      517            515         2      830            819
##  2  2013     1     1      533            529         4      850            830
##  3  2013     1     1      542            540         2      923            850
##  4  2013     1     1      544            545        -1     1004           1022
##  5  2013     1     1      554            600        -6      812            837
##  6  2013     1     1      554            558        -4      740            728
##  7  2013     1     1      555            600        -5      913            854
##  8  2013     1     1      557            600        -3      709            723
##  9  2013     1     1      557            600        -3      838            846
## 10  2013     1     1      558            600        -2      753            745
## # ℹ 336,766 more rows
## # ℹ 11 more variables: arr_delay <dbl>, carrier <chr>, flight <int>,
## #   tailnum <chr>, origin <chr>, dest <chr>, air_time <dbl>, distance <dbl>,
## #   hour <dbl>, minute <dbl>, time_hour <dttm>

Code

delay <- summarise(by_dest,
  count = n(),
  dist = mean(distance, na.rm = TRUE),
  delay = mean(arr_delay, na.rm = TRUE))

delay

## # A tibble: 105 × 4
##    dest  count  dist delay
##    <chr> <int> <dbl> <dbl>
##  1 ABQ     254 1826   4.38
##  2 ACK     265  199   4.85
##  3 ALB     439  143  14.4 
##  4 ANC       8 3370  -2.5 
##  5 ATL   17215  757. 11.3 
##  6 AUS    2439 1514.  6.02
##  7 AVL     275  584.  8.00
##  8 BDL     443  116   7.05
##  9 BGR     375  378   8.03
## 10 BHM     297  866. 16.9 
## # ℹ 95 more rows
…
