Chapter 4 Transformacion | Ciencia de Datos con R
…
date fecha

S3: POSIXct Fecha y tiempo, minutos

lgl valores logicos “cierto” (TRUE) y “falso” (FALSE)

fctr factores categoricos.

Evalua en este archivo los tipos de variables que se encuentra.

Code

vuelos

## # A tibble: 336,776 × 19
##     anio   mes   dia horario_salida salida_programada atraso_salida
##    <int> <int> <int>          <int>             <int>         <dbl>
##  1  2013     1     1            517               515             2
##  2  2013     1     1            533               529             4
##  3  2013     1     1            542               540             2
##  4  2013     1     1            544               545            -1
##  5  2013     1     1            554               600            -6
##  6  2013     1     1            554               558            -4
##  7  2013     1     1            555               600            -5
##  8  2013     1     1            557               600            -3
##  9  2013     1     1            557               600            -3
## 10  2013     1     1            558               600            -2
## # ℹ 336,766 more rows
## # ℹ 13 more variables: horario_llegada <int>, llegada_programada <int>,
## #   atraso_llegada <dbl>, aerolinea <chr>, vuelo <int>, codigo_cola <chr>,
## #   origen <chr>, destino <chr>, tiempo_vuelo <dbl>, distancia <dbl>,
## #   hora <dbl>, minuto <dbl>, fecha_hora <dttm>
…
4.1.2 Seleciona los vuelos donde el destino es San Juan

Code

vuelos %>%
  filter(destino=="SJU")

## # A tibble: 5,819 × 19
##     anio   mes   dia horario_salida salida_programada atraso_salida
##    <int> <int> <int>          <int>             <int>         <dbl>
##  1  2013     1     1            615               615             0
##  2  2013     1     1            628               630            -2
##  3  2013     1     1            701               700             1
##  4  2013     1     1            711               715            -4
##  5  2013     1     1            820               820             0
##  6  2013     1     1            820               820             0
##  7  2013     1     1            840               845            -5
##  8  2013     1     1            926               929            -3
##  9  2013     1     1           1202              1159             3
## 10  2013     1     1           1245              1249            -4
## # ℹ 5,809 more rows
## # ℹ 13 more variables: horario_llegada <int>, llegada_programada <int>,
## #   atraso_llegada <dbl>, aerolinea <chr>, vuelo <int>, codigo_cola <chr>,
## #   origen <chr>, destino <chr>, tiempo_vuelo <dbl>, distancia <dbl>,
## #   hora <dbl>, minuto <dbl>, fecha_hora <dttm>
…
Code

vuelos %>% 
  dplyr::select(mes, dia, destino, atraso_salida, atraso_llegada) %>% 
  filter(mes==11) %>% 
filter(destino =="SJU") %>% 
  arrange(desc(atraso_salida))

## # A tibble: 429 × 5
##      mes   dia destino atraso_salida atraso_llegada
##    <int> <int> <chr>           <dbl>          <dbl>
##  1    11     7 SJU               231            190
##  2    11    28 SJU               223            235
##  3    11    23 SJU               187            154
##  4    11    24 SJU               181            188
##  5    11    23 SJU               157            165
##  6    11    12 SJU               145            127
##  7    11    10 SJU                94             88
##  8    11    24 SJU                90            112
##  9    11    30 SJU                68             59
## 10    11    21 SJU                66             42
## # ℹ 419 more rows
…
summarize()

group_by()

Code

library(datos)
library(tidyverse)
por_dia <- vuelos %>% 
  group_by(dia) %>% 
  summarise(atraso_promedio = mean(atraso_salida, na.rm = TRUE))
por_dia

## # A tibble: 31 × 2
##      dia atraso_promedio
##    <int>           <dbl>
##  1     1           14.2 
##  2     2           14.1 
##  3     3           10.8 
##  4     4            5.79
##  5     5            7.82
##  6     6            6.99
##  7     7           14.3 
##  8     8           21.8 
##  9     9           14.6 
## 10    10           18.3 
## # ℹ 21 more rows

Code

## The median of the data set by day of the month

por_dia_2 <- vuelos %>% 
  group_by( dia) %>% 
  summarise(atraso_promedio = mean(atraso_salida, na.rm = TRUE),
            atraso_mediana = median(atraso_salida, na.rm=TRUE))
por_dia_2

## # A tibble: 31 × 3
##      dia atraso_promedio atraso_mediana
##    <int>           <dbl>          <dbl>
##  1     1           14.2              -2
##  2     2           14.1              -1
##  3     3           10.8              -2
##  4     4            5.79             -3
##  5     5            7.82             -3
##  6     6            6.99             -2
##  7     7           14.3              -1
##  8     8           21.8              -1
##  9     9           14.6              -1
## 10    10           18.3              -1
## # ℹ 21 more rows
…
library(DescTools)

por_dia_3=vuelos |> 
  dplyr::select(dia, mes, atraso_salida) |> 
  group_by(dia) %>% 
  summarise(atraso_promedio = mean(atraso_salida, na.rm = TRUE),
            atraso_max=max(atraso_salida, na.rm=TRUE),
            atraso_mode = getmode(atraso_salida),
            atraso_Mode = Mode(atraso_salida))
por_dia_3

## # A tibble: 31 × 5
##      dia atraso_promedio atraso_max atraso_mode atraso_Mode
##    <int>           <dbl>      <dbl>       <dbl>       <dbl>
##  1     1           14.2         853          -5          NA
##  2     2           14.1         696          -4          NA
##  3     3           10.8         878          -4          NA
##  4     4            5.79        545          -5          NA
##  5     5            7.82        896          -5          NA
##  6     6            6.99        589          -4          NA
##  7     7           14.3         653          -5          NA
##  8     8           21.8         520          NA          NA
##  9     9           14.6        1301          -4          NA
## 10    10           18.3        1126          -5          NA
## # ℹ 21 more rows
ADD the mean, median and mode to the same data frame

Code

## The mode of the value
library(DescTools)

por_dia_4 <- 
  group_by(vuelos, dia) %>% 
  summarise(atraso_promedio = mean(atraso_salida, na.rm = TRUE),
            atraso_median = median(atraso_salida, na.rm=TRUE),
            atraso_mode = Mode(atraso_salida))
por_dia_4

## # A tibble: 31 × 4
##      dia atraso_promedio atraso_median atraso_mode
##    <int>           <dbl>         <dbl>       <dbl>
##  1     1           14.2             -2          NA
##  2     2           14.1             -1          NA
##  3     3           10.8             -2          NA
##  4     4            5.79            -3          NA
##  5     5            7.82            -3          NA
##  6     6            6.99            -2          NA
##  7     7           14.3             -1          NA
##  8     8           21.8             -1          NA
##  9     9           14.6             -1          NA
## 10    10           18.3             -1          NA
## # ℹ 21 more rows
…
4.4.1 Otra alternativa para filtrar

4.4.1.1 “|”

Code

vuelos %>% 
  dplyr::select(anio, mes, dia, atraso_salida) %>% 
  filter(mes == 11 | mes == 12)

## # A tibble: 55,403 × 4
##     anio   mes   dia atraso_salida
##    <int> <int> <int>         <dbl>
##  1  2013    11     1             6
##  2  2013    11     1           105
##  3  2013    11     1            -5
##  4  2013    11     1            -6
##  5  2013    11     1            -3
##  6  2013    11     1           -11
##  7  2013    11     1           -10
##  8  2013    11     1            -6
##  9  2013    11     1            -6
## 10  2013    11     1            -6
## # ℹ 55,393 more rows
…
##  [1] "anio"               "mes"                "dia"               
##  [4] "horario_salida"     "salida_programada"  "atraso_salida"     
##  [7] "horario_llegada"    "llegada_programada" "atraso_llegada"    
## [10] "aerolinea"          "vuelo"              "codigo_cola"       
## [13] "origen"             "destino"            "tiempo_vuelo"      
## [16] "distancia"          "hora"               "minuto"            
## [19] "fecha_hora"

Code

vuelos %>% 
  dplyr::select(anio, mes, dia, atraso_salida, aerolinea) %>% 
  filter(mes == 12 & dia == 25 & aerolinea=="AA")

## # A tibble: 78 × 5
##     anio   mes   dia atraso_salida aerolinea
##    <int> <int> <int>         <dbl> <chr>    
##  1  2013    12    25             2 AA       
##  2  2013    12    25            -4 AA       
##  3  2013    12    25             1 AA       
##  4  2013    12    25             0 AA       
##  5  2013    12    25            -3 AA       
##  6  2013    12    25            -2 AA       
##  7  2013    12    25            26 AA       
##  8  2013    12    25            -7 AA       
##  9  2013    12    25            -6 AA       
## 10  2013    12    25            21 AA       
## # ℹ 68 more rows
…
Code

head(nchs_births_2001$BIRMON)

## [1] "01" "01" "01" "01" "01" "01"

Code

nchs_births_2001 |> dplyr::select(BIRMON, CSEX) |> 
  group_by()

## # A tibble: 55,983 × 2
##    BIRMON  CSEX
##    <chr>  <dbl>
##  1 01         1
##  2 01         1
##  3 01         2
##  4 01         2
##  5 01         2
##  6 01         1
##  7 01         2
##  8 01         2
##  9 01         2
## 10 01         2
## # ℹ 55,973 more rows
…
##  [1] "anio"               "mes"                "dia"               
##  [4] "horario_salida"     "salida_programada"  "atraso_salida"     
##  [7] "horario_llegada"    "llegada_programada" "atraso_llegada"    
## [10] "aerolinea"          "vuelo"              "codigo_cola"       
## [13] "origen"             "destino"            "tiempo_vuelo"      
## [16] "distancia"          "hora"               "minuto"            
## [19] "fecha_hora"

Code

vuelos %>% 
  dplyr::select(horario_salida)

## # A tibble: 336,776 × 1
##    horario_salida
##             <int>
##  1            517
##  2            533
##  3            542
##  4            544
##  5            554
##  6            554
##  7            555
##  8            557
##  9            557
## 10            558
## # ℹ 336,766 more rows

Code

vuelos %>% 
  dplyr::select(starts_with("horario"))

## # A tibble: 336,776 × 2
##    horario_salida horario_llegada
##             <int>           <int>
##  1            517             830
##  2            533             850
##  3            542             923
##  4            544            1004
##  5            554             812
##  6            554             740
##  7            555             913
##  8            557             709
##  9            557             838
## 10            558             753
## # ℹ 336,766 more rows

Code

vuelos %>% 
  dplyr::select(ends_with("salida"))

## # A tibble: 336,776 × 2
##    horario_salida atraso_salida
##             <int>         <dbl>
##  1            517             2
##  2            533             4
##  3            542             2
##  4            544            -1
##  5            554            -6
##  6            554            -4
##  7            555            -5
##  8            557            -3
##  9            557            -3
## 10            558            -2
## # ℹ 336,766 more rows

Code

vuelos %>% 
  dplyr::select(contains("hora"))

## # A tibble: 336,776 × 4
##    horario_salida horario_llegada  hora fecha_hora         
##             <int>           <int> <dbl> <dttm>             
##  1            517             830     5 2013-01-01 05:00:00
##  2            533             850     5 2013-01-01 05:00:00
##  3            542             923     5 2013-01-01 05:00:00
##  4            544            1004     5 2013-01-01 05:00:00
##  5            554             812     6 2013-01-01 06:00:00
##  6            554             740     5 2013-01-01 05:00:00
##  7            555             913     6 2013-01-01 06:00:00
##  8            557             709     6 2013-01-01 06:00:00
##  9            557             838     6 2013-01-01 06:00:00
## 10            558             753     6 2013-01-01 06:00:00
## # ℹ 336,766 more rows

4.13 rename()

Cambiar el nombre de la columna

Code

vuelos %>% 
  rename(aeropuerto_origen=origen) %>% 
  rename(areopuerto_distino=destino) # nombre nuevo= nombre original

## # A tibble: 336,776 × 19
##     anio   mes   dia horario_salida salida_programada atraso_salida
##    <int> <int> <int>          <int>             <int>         <dbl>
##  1  2013     1     1            517               515             2
##  2  2013     1     1            533               529             4
##  3  2013     1     1            542               540             2
##  4  2013     1     1            544               545            -1
##  5  2013     1     1            554               600            -6
##  6  2013     1     1            554               558            -4
##  7  2013     1     1            555               600            -5
##  8  2013     1     1            557               600            -3
##  9  2013     1     1            557               600            -3
## 10  2013     1     1            558               600            -2
## # ℹ 336,766 more rows
## # ℹ 13 more variables: horario_llegada <int>, llegada_programada <int>,
## #   atraso_llegada <dbl>, aerolinea <chr>, vuelo <int>, codigo_cola <chr>,
## #   aeropuerto_origen <chr>, areopuerto_distino <chr>, tiempo_vuelo <dbl>,
## #   distancia <dbl>, hora <dbl>, minuto <dbl>, fecha_hora <dttm>
…
Code

vuelos %>% 
    dplyr::select(distancia, aerolinea, everything())

## # A tibble: 336,776 × 19
##    distancia aerolinea  anio   mes   dia horario_salida salida_programada
##        <dbl> <chr>     <int> <int> <int>          <int>             <int>
##  1      1400 UA         2013     1     1            517               515
##  2      1416 UA         2013     1     1            533               529
##  3      1089 AA         2013     1     1            542               540
##  4      1576 B6         2013     1     1            544               545
##  5       762 DL         2013     1     1            554               600
##  6       719 UA         2013     1     1            554               558
##  7      1065 B6         2013     1     1            555               600
##  8       229 EV         2013     1     1            557               600
##  9       944 B6         2013     1     1            557               600
## 10       733 AA         2013     1     1            558               600
## # ℹ 336,766 more rows
## # ℹ 12 more variables: atraso_salida <dbl>, horario_llegada <int>,
## #   llegada_programada <int>, atraso_llegada <dbl>, vuelo <int>,
## #   codigo_cola <chr>, origen <chr>, destino <chr>, tiempo_vuelo <dbl>,
## #   hora <dbl>, minuto <dbl>, fecha_hora <dttm>

Seleccionar de un subset de variables en orden que aparece en el data.frame

Code

vuelos |> dplyr::select(anio:horario_salida)

## # A tibble: 336,776 × 4
##     anio   mes   dia horario_salida
##    <int> <int> <int>          <int>
##  1  2013     1     1            517
##  2  2013     1     1            533
##  3  2013     1     1            542
##  4  2013     1     1            544
##  5  2013     1     1            554
##  6  2013     1     1            554
##  7  2013     1     1            555
##  8  2013     1     1            557
##  9  2013     1     1            557
## 10  2013     1     1            558
## # ℹ 336,766 more rows
…
##  [1] "anio"               "mes"                "dia"               
##  [4] "horario_salida"     "salida_programada"  "atraso_salida"     
##  [7] "horario_llegada"    "llegada_programada" "atraso_llegada"    
## [10] "aerolinea"          "vuelo"              "codigo_cola"       
## [13] "origen"             "destino"            "tiempo_vuelo"      
## [16] "distancia"          "hora"               "minuto"            
## [19] "fecha_hora"

Code

vuelos |> dplyr::select(distancia, tiempo_vuelo, atraso_salida,  atraso_llegada) |> 
  mutate( ganancia = atraso_salida - atraso_llegada,
          velocidad = distancia / tiempo_vuelo * 60)

## # A tibble: 336,776 × 6
##    distancia tiempo_vuelo atraso_salida atraso_llegada ganancia velocidad
##        <dbl>        <dbl>         <dbl>          <dbl>    <dbl>     <dbl>
##  1      1400          227             2             11       -9      370.
##  2      1416          227             4             20      -16      374.
##  3      1089          160             2             33      -31      408.
##  4      1576          183            -1            -18       17      517.
##  5       762          116            -6            -25       19      394.
##  6       719          150            -4             12      -16      288.
##  7      1065          158            -5             19      -24      404.
##  8       229           53            -3            -14       11      259.
##  9       944          140            -3             -8        5      405.
## 10       733          138            -2              8      -10      319.
## # ℹ 336,766 more rows
…
Code

flights_sml |> mutate(gain = dep_delay - arr_delay,
                      speed = distance / air_time * 60
                      )

## # A tibble: 336,776 × 9
##     year month   day dep_delay arr_delay distance air_time  gain speed
##    <int> <int> <int>     <dbl>     <dbl>    <dbl>    <dbl> <dbl> <dbl>
##  1  2013     1     1         2        11     1400      227    -9  370.
##  2  2013     1     1         4        20     1416      227   -16  374.
##  3  2013     1     1         2        33     1089      160   -31  408.
##  4  2013     1     1        -1       -18     1576      183    17  517.
##  5  2013     1     1        -6       -25      762      116    19  394.
##  6  2013     1     1        -4        12      719      150   -16  288.
##  7  2013     1     1        -5        19     1065      158   -24  404.
##  8  2013     1     1        -3       -14      229       53    11  259.
##  9  2013     1     1        -3        -8      944      140     5  405.
## 10  2013     1     1        -2         8      733      138   -10  319.
## # ℹ 336,766 more rows
…
Code

mutate(vuelos_sml,
  ganado = atraso_salida - atraso_llegada,
  velocidad = distancia / tiempo_vuelo * 60
)

## # A tibble: 336,776 × 9
##     anio   mes   dia atraso_salida atraso_llegada distancia tiempo_vuelo ganado
##    <int> <int> <int>         <dbl>          <dbl>     <dbl>        <dbl>  <dbl>
##  1  2013     1     1             2             11      1400          227     -9
##  2  2013     1     1             4             20      1416          227    -16
##  3  2013     1     1             2             33      1089          160    -31
##  4  2013     1     1            -1            -18      1576          183     17
##  5  2013     1     1            -6            -25       762          116     19
##  6  2013     1     1            -4             12       719          150    -16
##  7  2013     1     1            -5             19      1065          158    -24
##  8  2013     1     1            -3            -14       229           53     11
##  9  2013     1     1            -3             -8       944          140      5
## 10  2013     1     1            -2              8       733          138    -10
## # ℹ 336,766 more rows
## # ℹ 1 more variable: velocidad <dbl>
…
